{
  "account": {
    "accountName": "Complete Access",
    "accountNumber": "062005 1709 5888",
    "available": 226.76,
    "balance": 246.76
  },
  "transactions": [
    {
      "id": "44e5b2bc484331ea24afd85ecfb212c8",
      "effectiveDate": "20/07/2017",
      "description": "Kaching TFR from JOHN CITIZEN<br/>xmas donation",
      "amount": 12.00
    },
    {
      "id": "1506aeeb8c3a699b1e3c87db03156428",
      "effectiveDate": "20/07/2017",
      "description": "Wdl ATM CBA ATM CIRCULAR QUAY STATION NSW 221092 AUS",
      "amount": -200.00,
      "atmId": "129382"
    },
    {
      "id": "9a899bfd978511e9605774e1d5222b67",
      "description": "Savings",
      "effectiveDate": "19/07/2017",
      "amount": 10.00
    },
    {
      "id": "1a6c48627cecaa2388b702fa33d751ff",
      "description": "PTAG COCA COLA AMATI",
      "effectiveDate": "12/07/2017",
      "amount": -2.20
    },
    {
      "id": "7ecc19e1a0be36ba2c6f05d06b5d3058",
      "description": "Wdl ATM CBA ATM TOWN HALL SQUARE NSW 253432 AUS",
      "effectiveDate": "04/07/2017",
      "amount": -50.00,
      "atmId": "137483"
    },
    {
      "id": "b71bf065b640217dad602f86ac047722",
      "description": "BPAY - Telstra mobile",
      "effectiveDate": "04/07/2017",
      "amount": -49.00
    },
    {
      "id": "ef087651eb482bae4624478696f4ad4f",
      "description": "Transfer from REBECCA SHAW<br/>Lorem ipsum",
      "effectiveDate": "03/07/2017",
      "amount": 150.00
    },
    {
      "id": "8cd283d8b7bacc277f2bae5e26ce6d1e",
      "description": "Savings",
      "effectiveDate": "01/07/2017",
      "amount": 200.00
    },
    {
      "id": "04117d2d74f5331f3ee4955da27cca7a",
      "effectiveDate": "28/06/2017",
      "description": "Transfer - Saturday drinks",
      "amount": -100.00
    },
    {
      "id": "821ae63dbe0c573eff8b69d451fb21bc",
      "effectiveDate": "21/06/2017",
      "description": "Wdl ATM CBA ATM CIRCULAR QUAY STATION NSW 221092 AUS",
      "amount": -200.00,
      "atmId": "129382"
    },
    {
      "id": "210ab9e731c9c36c2c38db15c28a8d1c",
      "description": "Account fee",
      "effectiveDate": "12/06/2017",
      "amount": -4.00
    },
    {
      "id": "d4fae4b45e689707e7dea506afc8c0e7",
      "description": "TELSTRA CORP LTD BPAY 23796 1000006591234",
      "effectiveDate": "4/06/2017",
      "amount": -89.00
    },
    {
      "id": "87f6f9d078c3bc5db5578f3b4add9470",
      "description": "Credit Interest",
      "effectiveDate": "3/06/2017",
      "amount": 0.02
    }
  ],
  "pending": [
    {
      "id": "e2eff6c2dafd909df8508f891b385d88",
      "description": "WILSON PARKING SYDOBS SYDNEY NS AUS<br/>LAST 4 CARD DIGITS: 6901",
      "effectiveDate": "22/05/2017",
      "amount": -12.00
    },
    {
      "id": "901889f4f34f8ca18ac2f53d1fed346e",
      "description": "CITYOFSYDNEYPARKINGTX SYDNEY, 1215<br/>LAST 4 CARD DIGITS: 6901",
      "effectiveDate": "17/05/2017",
      "amount": -8.00
    }
  ],
  "atms": [
    {
      "id": "129382",
      "name": "Circular Quay Station",
      "address": "8 Alfred St, Sydney, NSW 2000",
      "location": {
        "lat": -33.861382,
        "lng": 151.210316
      }
    },
    {
      "id": "137483",
      "name": "Town Hall Square",
      "address": "464-480 Kent St, Sydney, NSW 2000",
      "location": {
        "lat": -33.873181,
        "lng": 151.205389
      }
    }
  ]
}
